20180101 23:01:05.001|1001|101|98|25|20|8|TSTAT
20180101 23:01:06.001|1001|101|98|25|20|8|TSTAT
20180101 23:01:06.001|1001|101|98|25|20|8|TSTAT
20180101 23:01:06.001|1002|101|98|25|20|8|TSTAT
20180101 23:01:06.001|1001|101|98|25|20|8|TSTAT
20180101 23:01:06.001|1004|101|98|25|20|8|TSTAT